<?xml version="1.0" encoding="utf-8"?>
<!-- Generator: Adobe Illustrator 24.3.0, SVG Export Plug-In . SVG Version: 6.00 Build 0)  -->
<svg version="1.1" id="Ebene_1" xmlns="http://www.w3.org/2000/svg" xmlns:xlink="http://www.w3.org/1999/xlink" x="0px" y="0px"
	 viewBox="0 0 56.7 56.7" style="enable-background:new 0 0 56.7 56.7;" xml:space="preserve">
<style type="text/css">
	.st0{fill:#FFFFFF;}
	.st1{clip-path:url(#SVGID_2_);}
	.st2{fill-rule:evenodd;clip-rule:evenodd;fill:#060F00;}
	.st3{fill:#060F00;}
	.st4{fill:none;stroke:#060F00;stroke-width:0.82;stroke-miterlimit:2.61;}
	.st5{fill:none;stroke:#060F00;stroke-width:1.15;stroke-miterlimit:2.61;}
	.st6{fill:none;stroke:#060F00;stroke-width:2.58;stroke-miterlimit:2.61;}
	.st7{fill:none;stroke:#060F00;stroke-width:1.43;stroke-miterlimit:2.61;}
	.st8{fill-rule:evenodd;clip-rule:evenodd;fill:#B71722;}
</style>
<circle class="st0" cx="28.5" cy="28.4" r="26.6"/>
<g id="Ebene_2_1_">
	<g id="Ebene_1-2">
		<g>
			<defs>
				<rect id="SVGID_1_" y="0" width="56.7" height="56.7"/>
			</defs>
			<clipPath id="SVGID_2_">
				<use xlink:href="#SVGID_1_"  style="overflow:visible;"/>
			</clipPath>
			<g class="st1">
				<path class="st2" d="M27.1,15.4h17.2v4.7h-5.5c-2.8,2.2-6.8,2.2-9.6,0h-2.8c-3.8,0.6-2.8,5.8-2.8,5.8H19
					c-0.9-3.6,0.5-7.4,3.4-9.7C22.4,16.3,23,15.4,27.1,15.4"/>
				<rect x="33" y="13.6" class="st3" width="2.4" height="1.8"/>
				<rect x="33" y="13.6" class="st4" width="2.4" height="1.8"/>
				<path class="st2" d="M36.8,13c0.4,0.3,1.1,0.2,1.4-0.2c0.3-0.4,0.2-1.1-0.2-1.4c-0.4-0.3-1-0.2-1.4,0.2
					C36.3,12,36.4,12.6,36.8,13C36.8,13,36.8,13,36.8,13"/>
				<path class="st5" d="M36.8,13c0.4,0.3,1.1,0.2,1.4-0.2c0.3-0.4,0.2-1.1-0.2-1.4c-0.4-0.3-1-0.2-1.4,0.2
					C36.3,12,36.4,12.6,36.8,13C36.8,13,36.8,13,36.8,13z"/>
				<rect x="32.5" y="10.7" class="st3" width="4.9" height="3.1"/>
				<path class="st2" d="M31.5,11.4c-0.4-0.3-1.1-0.2-1.4,0.2s-0.2,1.1,0.2,1.4s1.1,0.2,1.4-0.2l0,0C32.1,12.4,32,11.8,31.5,11.4"/>
				<path class="st5" d="M31.5,11.4c-0.4-0.3-1.1-0.2-1.4,0.2s-0.2,1.1,0.2,1.4s1.1,0.2,1.4-0.2l0,0C32.1,12.4,32,11.8,31.5,11.4z"
					/>
				<rect x="30.9" y="10.7" class="st3" width="4.9" height="3.1"/>
				<path class="st6" d="M12.3,27.4l4.5,16.1h11.3 M33,27.4l-4.5,16.1H17.1"/>
				<path class="st7" d="M31.1,33.7c-1.3,0-2.5-0.3-3.7-0.7c-3.2-1.1-4,1.5-6.3,1.4c-1.2-0.1-2.4-0.5-3.3-1.3
					c-1.4-0.5-2.9-0.7-4.3-0.4 M31.1,31.1c-1.3,0.1-2.5-0.2-3.7-0.7c-3.2-1.4-4.5,1.5-6.4,1.5c-1.6,0-1.4-0.8-3.3-1.4
					c-1.4-0.4-2.9-0.5-4.3-0.4"/>
				<path class="st8" d="M56.7,28.4v-1.3l-0.1-1.3l-0.1-1.3l-0.2-1.2L56,22l-0.3-1.2l-0.4-1.2l-0.4-1.2l-0.5-1.2L53.9,16l-0.6-1.1
					l-0.6-1.1l-0.7-1l-0.7-1.1l-0.8-1l-0.8-1l-0.8-0.9l-0.9-0.9L47,7l-1-0.8l-1-0.8l-1-0.7L42.9,4l-1.1-0.6l-1.1-0.6l-1.2-0.5
					l-1.2-0.5l-1.2-0.4L35.9,1l-1.2-0.3l-1.2-0.2l-1.3-0.2l-1.3-0.2L29.6,0h-1.3h-1.3l-1.3,0.1l-1.3,0.2l-1.2,0.2L22,0.7L20.8,1
					l-1.2,0.4l-1.2,0.4l-1.2,0.5L16,2.8l-1.1,0.6L13.8,4l-1.1,0.7l-1,0.7l-1,0.8L9.7,7L8.8,7.8L7.9,8.7L7,9.7l-0.8,1l-0.8,1
					l-0.7,1.1L4,13.8l-0.6,1.1L2.8,16l-0.5,1.2l-0.5,1.2l-0.4,1.2L1,20.8L0.7,22l-0.2,1.3l-0.2,1.2l-0.1,1.3L0,27.1v1.3v1.3l0.1,1.3
					l0.2,1.3l0.2,1.3l0.2,1.3L1,35.9l0.4,1.2l0.4,1.2l0.5,1.2l0.5,1.2l0.6,1.1L4,42.9L4.7,44l0.7,1l0.8,1L7,47l0.9,0.9l0.9,0.9
					l0.9,0.9l1,0.8l1,0.8l1,0.7l1.1,0.7l1.1,0.6l1.1,0.6l1.1,0.5l1.2,0.5l1.2,0.4l1.2,0.3L22,56l1.3,0.3l1.2,0.2l1.3,0.1l1.3,0.1
					h1.3h1.3l1.3-0.1l1.3-0.1l1.3-0.2l1.3-0.3l1.2-0.3l1.2-0.3l1.2-0.4l1.2-0.5l1.2-0.5l1.1-0.6l1.1-0.6L44,52l1-0.7l1-0.8l1-0.8
					l1-0.9l0.9-0.9l0.8-0.9l0.8-1l0.8-1l0.7-1l0.7-1.1l0.6-1.1l0.6-1.1l0.5-1.2l0.5-1.2l0.4-1.2l0.4-1.2l0.3-1.2l0.2-1.2l0.2-1.3
					l0.1-1.3l0.1-1.3L56.7,28.4z M45.9,42.7l0.7-0.9l0.7-1l0.6-1l0.5-1l0.5-1l0.5-1l0.4-1.1l0.3-1.1l0.3-1.1l0.2-1.1l0.2-1.1
					l0.2-1.2v-1.1v-1.1v-1.2l-0.1-1.1l-0.2-1.1l-0.2-1.1l-0.3-1.1L49.8,21l-0.4-1.1l-0.4-1l-0.5-1l-0.6-1l-0.6-1l-0.7-0.9L46,14
					l-0.7-0.9l-0.8-0.8l-0.8-0.8l-0.9-0.8l-0.9-0.7l-1-0.7l-1-0.6l-1-0.6l-1-0.5l-1.1-0.4l-1.1-0.4l-1.1-0.3l-1.1-0.3L32.3,6
					l-1.1-0.2l-1.1-0.1h-1.1h-1.2h-1.1l-1.1,0.1L24.3,6l-1.1,0.2l-1.1,0.3L21,6.9l-1.1,0.4l-1.1,0.5l-1,0.5l-1,0.6l-1,0.6l-0.9,0.7
					L14,10.8L45.9,42.7z M42.7,45.9L10.8,14l-0.7,0.9l-0.7,0.9l-0.6,1l-0.6,1l-0.5,1l-0.5,1L6.9,21l-0.3,1.1l-0.3,1.1L6,24.3
					l-0.2,1.1l-0.1,1.1l-0.1,1.1v1.1L5.7,30l0.1,1.2L6,32.3l0.2,1.1l0.3,1.1l0.3,1.1l0.4,1.1l0.5,1l0.5,1l0.6,1l0.6,1l0.7,1l0.7,0.9
					l0.8,0.9l0.8,0.8l0.9,0.8L14,46l0.9,0.7l0.9,0.7l1,0.6l1,0.5l1,0.5l1,0.5l1.1,0.4l1.1,0.3l1.1,0.3l1.1,0.2l1.1,0.2l1.1,0.1
					l1.1,0h1.1l1.2,0l1.1-0.1l1.1-0.2l1.1-0.2l1.1-0.3l1.1-0.3l1.1-0.4l1-0.5l1-0.5l1-0.6l1-0.6l1-0.7L42.7,45.9z"/>
			</g>
		</g>
	</g>
</g>
</svg>
